Case #1: 012
Case #2: 2468
Case #3: 114
Case #4: 3
Case #5: 78
Case #6: 13
Case #7: 0015
Case #8: 111222
Case #9: 112222
Case #10: 111111
Case #11: 578
Case #12: 1359
Case #13: 0268
Case #14: 1579
Case #15: 015
Case #16: 1166
Case #17: 1678
Case #18: 11999
Case #19: 35
Case #20: 1169
Case #21: 00000
Case #22: 11
Case #23: 1348
Case #24: 7
Case #25: 1145
Case #26: 122222
Case #27: 0157
Case #28: 15
Case #29: 11112
Case #30: 35
Case #31: 779
Case #32: 3
Case #33: 0
Case #34: 01
Case #35: 5
Case #36: 248
Case #37: 1899
Case #38: 01136
Case #39: 179
Case #40: 0
Case #41: 388
Case #42: 5568
Case #43: 8
Case #44: 11111
Case #45: 8
Case #46: 116
Case #47: 1124
Case #48: 222222
Case #49: 1579
Case #50: 0
Case #51: 001
Case #52: 111122
Case #53: 788
Case #54: 2336
Case #55: 135
Case #56: 111112
Case #57: 5568
Case #58: 1
Case #59: 1346
Case #60: 01246
Case #61: 15
Case #62: 01579
Case #63: 48
Case #64: 19999
Case #65: 569
Case #66: 5679
Case #67: 36689
Case #68: 155
Case #69: 0156
Case #70: 1566
Case #71: 2
Case #72: 1789
Case #73: 017
Case #74: 8
Case #75: 0389
Case #76: 11119
Case #77: 00001
Case #78: 1
Case #79: 133
Case #80: 1179
Case #81: 01
Case #82: 11
Case #83: 55668
Case #84: 148
Case #85: 1779
Case #86: 1
Case #87: 1799
Case #88: 39
Case #89: 5
Case #90: 00
Case #91: 5589
Case #92: 25
Case #93: 2
Case #94: 0157
Case #95: 559
Case #96: 112255
Case #97: 8
Case #98: 1
Case #99: 99999
Case #100: 11199
